{
  "age": {
    "bundle": "age/middle.bundle"
  },
  "head": {
    "bundle": "head/oppo_face_mid.bundle"
  },
  "eye": {
    "bundle": "eye/Y_003.bundle"
  },
  "nose": {
    "bundle": "nose/B_002.bundle"
  },
  "face": {
    "bundle": "face/L_002.bundle"
  },
  "mouth": {
    "bundle": "mouth/Z_002.bundle"
  },
  "brow": {
    "bundle": "brow/M_002.bundle"
  },
  "ear": {
    "bundle": "ear/E_002.bundle"
  },
  "liplash": {
    "bundle": "beauty/oppo_liplash.bundle"
  },
  "eyelash": {
    "bundle": "eyelash/J_001.bundle"
  },
  "lip_color": {
    "r": 167.5,
    "g": 125,
    "b": 109,
    "a": 255,
    "intensity": 0.5,
    "isAttachColor": true,
    "left": [
      130,
      82,
      66,
      255
    ],
    "mid": [
      167.5,
      125,
      109,
      255
    ],
    "right": [
      205,
      168,
      152,
      255
    ],
    "parentColorIndex": 2,
    "emptyColorPosition": 1,
    "sync_lerp": false,
    "parent": {
      "r": 205,
      "g": 168,
      "b": 152,
      "a": 255,
      "intensity": 0.5,
      "isAttachColor": false,
      "left": [
        206,
        177,
        153,
        255
      ],
      "mid": [
        205,
        168,
        152,
        255
      ],
      "right": [
        216,
        183,
        169,
        255
      ],
      "parentColorIndex": -1,
      "emptyColorPosition": -1,
      "sync_lerp": false
    }
  },
  "earring_color_R": {
    "r": 43,
    "g": 34,
    "b": 34,
    "a": 255,
    "intensity": 0.5,
    "isAttachColor": false,
    "left": [
      30,
      28,
      28,
      255
    ],
    "mid": [
      43,
      34,
      34,
      255
    ],
    "right": [
      53,
      43,
      43,
      255
    ],
    "parentColorIndex": -1,
    "emptyColorPosition": -1,
    "sync_lerp": false
  },
  "hair_ribbon_color": {
    "r": 190,
    "g": 181,
    "b": 181,
    "a": 255,
    "intensity": 0.5,
    "isAttachColor": false,
    "left": [
      120,
      117,
      114,
      255
    ],
    "mid": [
      190,
      181,
      181,
      255
    ],
    "right": [
      230,
      217,
      217,
      255
    ],
    "parentColorIndex": -1,
    "emptyColorPosition": -1,
    "sync_lerp": false
  },
  "skin_color": {
    "r": 205,
    "g": 168,
    "b": 152,
    "a": 255,
    "intensity": 0.5,
    "isAttachColor": false,
    "left": [
      206,
      177,
      153,
      255
    ],
    "mid": [
      205,
      168,
      152,
      255
    ],
    "right": [
      216,
      183,
      169,
      255
    ],
    "parentColorIndex": -1,
    "emptyColorPosition": -1,
    "sync_lerp": false,
    "sync": {
      "lip_color": {
        "r": 167.5,
        "g": 125,
        "b": 109,
        "a": 255,
        "intensity": 0.5,
        "isAttachColor": true,
        "left": [
          130,
          82,
          66,
          255
        ],
        "mid": [
          167.5,
          125,
          109,
          255
        ],
        "right": [
          205,
          168,
          152,
          255
        ],
        "parentColorIndex": 2,
        "emptyColorPosition": 1,
        "sync_lerp": false
      }
    }
  },
  "glass_color": {
    "r": 251,
    "g": 251,
    "b": 251,
    "a": 128,
    "intensity": 0.5,
    "isAttachColor": false,
    "left": [
      251,
      251,
      251,
      230
    ],
    "mid": [
      251,
      251,
      251,
      128
    ],
    "right": [
      251,
      251,
      251,
      26
    ],
    "parentColorIndex": -1,
    "emptyColorPosition": -1,
    "sync_lerp": false
  },
  "labret_color": {
    "r": 70,
    "g": 70,
    "b": 70,
    "a": 255,
    "intensity": 0.5,
    "isAttachColor": false,
    "left": [
      54,
      54,
      54,
      255
    ],
    "mid": [
      70,
      70,
      70,
      255
    ],
    "right": [
      92,
      90,
      90,
      255
    ],
    "parentColorIndex": -1,
    "emptyColorPosition": -1,
    "sync_lerp": false
  },
  "glass_frame_color": {
    "r": 70,
    "g": 70,
    "b": 70,
    "a": 255,
    "intensity": 0.5,
    "isAttachColor": false,
    "left": [
      54,
      54,
      54,
      255
    ],
    "mid": [
      70,
      70,
      70,
      255
    ],
    "right": [
      92,
      90,
      90,
      255
    ],
    "parentColorIndex": -1,
    "emptyColorPosition": -1,
    "sync_lerp": false
  },
  "eyebrow_color": {
    "r": 70,
    "g": 70,
    "b": 70,
    "a": 255,
    "intensity": 0.5,
    "isAttachColor": true,
    "left": [
      54,
      54,
      54,
      255
    ],
    "mid": [
      70,
      70,
      70,
      255
    ],
    "right": [
      92,
      90,
      90,
      255
    ],
    "parentColorIndex": 2,
    "emptyColorPosition": 1,
    "sync_lerp": true,
    "parent": {
      "r": 70,
      "g": 70,
      "b": 70,
      "a": 255,
      "intensity": 0.5,
      "isAttachColor": false,
      "left": [
        54,
        54,
        54,
        255
      ],
      "mid": [
        70,
        70,
        70,
        255
      ],
      "right": [
        92,
        90,
        90,
        255
      ],
      "parentColorIndex": -1,
      "emptyColorPosition": -1,
      "sync_lerp": false
    }
  },
  "hat_color": {
    "r": 70,
    "g": 70,
    "b": 70,
    "a": 255,
    "intensity": 0.5,
    "isAttachColor": false,
    "left": [
      30,
      28,
      28,
      255
    ],
    "mid": [
      70,
      70,
      70,
      255
    ],
    "right": [
      114,
      114,
      114,
      255
    ],
    "parentColorIndex": -1,
    "emptyColorPosition": -1,
    "sync_lerp": false
  },
  "earring_color_L": {
    "r": 43,
    "g": 34,
    "b": 34,
    "a": 255,
    "intensity": 0.5,
    "isAttachColor": false,
    "left": [
      30,
      28,
      28,
      255
    ],
    "mid": [
      43,
      34,
      34,
      255
    ],
    "right": [
      53,
      43,
      43,
      255
    ],
    "parentColorIndex": -1,
    "emptyColorPosition": -1,
    "sync_lerp": false
  },
  "hair_color": {
    "r": 70,
    "g": 70,
    "b": 70,
    "a": 255,
    "intensity": 0.5,
    "isAttachColor": false,
    "left": [
      54,
      54,
      54,
      255
    ],
    "mid": [
      70,
      70,
      70,
      255
    ],
    "right": [
      92,
      90,
      90,
      255
    ],
    "parentColorIndex": -1,
    "emptyColorPosition": -1,
    "sync_lerp": false,
    "sync": {
      "eyebrow_color": {
        "r": 70,
        "g": 70,
        "b": 70,
        "a": 255,
        "intensity": 0.5,
        "isAttachColor": true,
        "left": [
          54,
          54,
          54,
          255
        ],
        "mid": [
          70,
          70,
          70,
          255
        ],
        "right": [
          92,
          90,
          90,
          255
        ],
        "parentColorIndex": 2,
        "emptyColorPosition": 1,
        "sync_lerp": true
      },
      "beard_color": {
        "r": 70,
        "g": 70,
        "b": 70,
        "a": 255,
        "intensity": 0.5,
        "isAttachColor": true,
        "left": [
          54,
          54,
          54,
          255
        ],
        "mid": [
          70,
          70,
          70,
          255
        ],
        "right": [
          92,
          90,
          90,
          255
        ],
        "parentColorIndex": 2,
        "emptyColorPosition": 1,
        "sync_lerp": true
      }
    }
  },
  "iris_color": {
    "r": 100,
    "g": 80,
    "b": 63,
    "a": 255,
    "intensity": 0.5,
    "isAttachColor": false,
    "left": [
      79,
      61,
      52,
      255
    ],
    "mid": [
      100,
      80,
      63,
      255
    ],
    "right": [
      136,
      114,
      103,
      255
    ],
    "parentColorIndex": -1,
    "emptyColorPosition": -1,
    "sync_lerp": false
  },
  "beard_color": {
    "r": 70,
    "g": 70,
    "b": 70,
    "a": 255,
    "intensity": 0.5,
    "isAttachColor": true,
    "left": [
      54,
      54,
      54,
      255
    ],
    "mid": [
      70,
      70,
      70,
      255
    ],
    "right": [
      92,
      90,
      90,
      255
    ],
    "parentColorIndex": -1,
    "emptyColorPosition": -1,
    "sync_lerp": true,
    "parent": {
      "r": 70,
      "g": 70,
      "b": 70,
      "a": 255,
      "intensity": 0.5,
      "isAttachColor": false,
      "left": [
        54,
        54,
        54,
        255
      ],
      "mid": [
        70,
        70,
        70,
        255
      ],
      "right": [
        92,
        90,
        90,
        255
      ],
      "parentColorIndex": 2,
      "emptyColorPosition": 1,
      "sync_lerp": false
    }
  }
}